^D:\BRIEFCASE\UPPSALA UNIVERSITY\ÅR 3\PROGRAMMERING 3 (KOMPLETTERING)\GENERATE 3D NETWORKING\3DNETWORKING\GENERATE3DNETWORK\APPLICATION.CPP|D:\BRIEFCASE\UPPSALA UNIVERSITY\ÅR 3\PROGRAMMERING 3 (KOMPLETTERING)\GENERATE 3D NETWORKING\3DNETWORKING\GENERATE3DNETWORK\SHADER.CPP|D:\BRIEFCASE\UPPSALA UNIVERSITY\ÅR 3\PROGRAMMERING 3 (KOMPLETTERING)\GENERATE 3D NETWORKING\3DNETWORKING\GENERATE3DNETWORK\SOURCE\CLIENT.CPP
D:\BRIEFCASE\UPPSALA UNIVERSITY\ÅR 3\PROGRAMMERING 3 (KOMPLETTERING)\GENERATE 3D NETWORKING\3DNETWORKING\GENERATE3DNETWORK\WIN32\DEBUG\ TO WIN32\DEBUG\GENERATE3DNETWORK\VC140.PDB
D:\BRIEFCASE\UPPSALA UNIVERSITY\ÅR 3\PROGRAMMERING 3 (KOMPLETTERING)\GENERATE 3D NETWORKING\3DNETWORKING\GENERATE3DNETWORK\WIN32\DEBUG\ TO WIN32\DEBUG\GENERATE3DNETWORK\VC140.IDB
D:\BRIEFCASE\UPPSALA UNIVERSITY\ÅR 3\PROGRAMMERING 3 (KOMPLETTERING)\GENERATE 3D NETWORKING\3DNETWORKING\GENERATE3DNETWORK\WIN32\DEBUG\ TO WIN32\DEBUG\GENERATE3DNETWORK\APPLICATION.OBJ
D:\BRIEFCASE\UPPSALA UNIVERSITY\ÅR 3\PROGRAMMERING 3 (KOMPLETTERING)\GENERATE 3D NETWORKING\3DNETWORKING\GENERATE3DNETWORK\WIN32\DEBUG\ TO WIN32\DEBUG\GENERATE3DNETWORK\CLIENT.OBJ
^D:\BRIEFCASE\UPPSALA UNIVERSITY\ÅR 3\PROGRAMMERING 3 (KOMPLETTERING)\GENERATE 3D NETWORKING\3DNETWORKING\GENERATE3DNETWORK\APPLICATION.CPP
D:\BRIEFCASE\UPPSALA UNIVERSITY\ÅR 3\PROGRAMMERING 3 (KOMPLETTERING)\GENERATE 3D NETWORKING\3DNETWORKING\GENERATE3DNETWORK\WIN32\DEBUG\ TO WIN32\DEBUG\GENERATE3DNETWORK\VC140.PDB
^D:\BRIEFCASE\UPPSALA UNIVERSITY\ÅR 3\PROGRAMMERING 3 (KOMPLETTERING)\GENERATE 3D NETWORKING\3DNETWORKING\GENERATE3DNETWORK\SHADER.CPP
D:\BRIEFCASE\UPPSALA UNIVERSITY\ÅR 3\PROGRAMMERING 3 (KOMPLETTERING)\GENERATE 3D NETWORKING\3DNETWORKING\GENERATE3DNETWORK\WIN32\DEBUG\ TO WIN32\DEBUG\GENERATE3DNETWORK\VC140.PDB
D:\BRIEFCASE\UPPSALA UNIVERSITY\ÅR 3\PROGRAMMERING 3 (KOMPLETTERING)\GENERATE 3D NETWORKING\3DNETWORKING\GENERATE3DNETWORK\WIN32\DEBUG\ TO WIN32\DEBUG\GENERATE3DNETWORK\VC140.IDB
^D:\BRIEFCASE\UPPSALA UNIVERSITY\ÅR 3\PROGRAMMERING 3 (KOMPLETTERING)\GENERATE 3D NETWORKING\3DNETWORKING\GENERATE3DNETWORK\SOURCE\CLIENT.CPP
D:\BRIEFCASE\UPPSALA UNIVERSITY\ÅR 3\PROGRAMMERING 3 (KOMPLETTERING)\GENERATE 3D NETWORKING\3DNETWORKING\GENERATE3DNETWORK\WIN32\DEBUG\ TO WIN32\DEBUG\GENERATE3DNETWORK\VC140.PDB
^D:\BRIEFCASE\UPPSALA UNIVERSITY\ÅR 3\PROGRAMMERING 3 (KOMPLETTERING)\GENERATE 3D NETWORKING\3DNETWORKING\GENERATE3DNETWORK\APPLICATION.CPP|D:\BRIEFCASE\UPPSALA UNIVERSITY\ÅR 3\PROGRAMMERING 3 (KOMPLETTERING)\GENERATE 3D NETWORKING\3DNETWORKING\GENERATE3DNETWORK\SHADER.CPP
D:\BRIEFCASE\UPPSALA UNIVERSITY\ÅR 3\PROGRAMMERING 3 (KOMPLETTERING)\GENERATE 3D NETWORKING\3DNETWORKING\GENERATE3DNETWORK\WIN32\DEBUG\ TO WIN32\DEBUG\GENERATE3DNETWORK\VC140.PDB
D:\BRIEFCASE\UPPSALA UNIVERSITY\ÅR 3\PROGRAMMERING 3 (KOMPLETTERING)\GENERATE 3D NETWORKING\3DNETWORKING\GENERATE3DNETWORK\WIN32\DEBUG\ TO WIN32\DEBUG\GENERATE3DNETWORK\VC140.IDB
D:\BRIEFCASE\UPPSALA UNIVERSITY\ÅR 3\PROGRAMMERING 3 (KOMPLETTERING)\GENERATE 3D NETWORKING\3DNETWORKING\GENERATE3DNETWORK\WIN32\DEBUG\ TO WIN32\DEBUG\GENERATE3DNETWORK\APPLICATION.OBJ
D:\BRIEFCASE\UPPSALA UNIVERSITY\ÅR 3\PROGRAMMERING 3 (KOMPLETTERING)\GENERATE 3D NETWORKING\3DNETWORKING\GENERATE3DNETWORK\WIN32\DEBUG\ TO WIN32\DEBUG\GENERATE3DNETWORK\SHADER.OBJ
