^E:\ANDRE\DOCUMENTS\3DNETWORKING\3DNETWORKSERVER\3DNETWORKSERVER\SOURCE\SERVER.CPP
E:\ANDRE\DOCUMENTS\3DNETWORKING\3DNETWORKSERVER\3DNETWORKSERVER\3DNETWORKSERVER\DEBUG\VC140.PDB
E:\ANDRE\DOCUMENTS\3DNETWORKING\3DNETWORKSERVER\3DNETWORKSERVER\3DNETWORKSERVER\DEBUG\VC140.IDB
E:\ANDRE\DOCUMENTS\3DNETWORKING\3DNETWORKSERVER\3DNETWORKSERVER\3DNETWORKSERVER\DEBUG\SERVER.OBJ
