^E:\ANDRE\DOCUMENTS\3DNETWORKING\3DNETWORKSERVER\3DNETWORKSERVER\3DNETWORKSERVER\DEBUG\SERVER.OBJ
E:\ANDRE\DOCUMENTS\3DNETWORKING\3DNETWORKSERVER\3DNETWORKSERVER\DEBUG\3DNETWORKSERVER.ILK
E:\ANDRE\DOCUMENTS\3DNETWORKING\3DNETWORKSERVER\3DNETWORKSERVER\DEBUG\3DNETWORKSERVER.EXE
E:\ANDRE\DOCUMENTS\3DNETWORKING\3DNETWORKSERVER\3DNETWORKSERVER\DEBUG\3DNETWORKSERVER.PDB
